745434 315478 509
602293 951716 525
572011 484962 470
920490 885840 476
178480 31297 383
88352 949458 525
33908 460287 449
789572 314017 509
909851 627336 525
667307 452808 509
136116 670915 509
178014 986501 525
704223 814437 504
681852 157243 509
573105 426196 470
88342 572333 470
936919 804934 525
125046 101759 354
477392 344819 449
911491 666753 525
270897 126633 443
970428 188080 525
267196 189933 443
836168 827325 419
318894 839041 525
488696 464959 413
356187 579547 470
772274 970825 525
370930 335774 441
314309 458565 449
169583 31435 383
922420 727907 525
257301 380087 441
402753 219536 443
343826 76593 443
826328 667279 504
677959 618475 509
701325 938292 525
686635 985642 525
627033 706608 504
447054 41732 449
397290 903935 525
44849 930205 525
214414 718173 509
133460 752901 509
742744 88350 509
495280 51587 449
338042 883647 525
538010 103639 470
243928 473846 449
161539 307479 443
541666 269401 470
244156 759428 509
587112 576806 434
38610 22909 324
799218 966607 525
260333 755417 509
586239 432018 470
409729 101676 443
790327 287212 509
367411 201333 443
913319 408306 525
366037 493732 449
146580 694335 509
968118 333014 525
664057 513574 509
946088 884518 507
33612 439973 449
397246 830601 509
704457 880907 525
397133 585565 470
733246 802681 468
541002 249191 470
300770 537669 470
233746 781225 509
634271 700157 442
698063 122321 509
688560 850305 525
931850 343494 525
797074 942800 525
132448 265248 443
550854 337818 470
847536 213661 525
39530 69362 340
114795 650939 509
789068 661211 504
389464 335756 441
728280 642698 504
504805 27128 449
961059 363531 525
816138 675082 504
501560 941582 525
310993 621514 470
854055 859949 419
72836 976262 525
69996 627413 509
601320 949951 525
321506 148509 443
181696 320504 443
656119 604423 509
646313 834018 504
63252 498587 449
912797 556198 525
224306 194354 386
529373 675768 509
87132 365210 443
241441 870449 525
307970 125005 443
45695 870324 525
477115 647025 509
677220 730804 504
563739 435612 470
137899 841588 525
104592 868545 525
97242 102458 341
489016 725817 509
504545 404707 449
785491 829318 468
50857 541623 470
523139 15690 470
986658 450751 525
921760 210560 525
115679 751052 509
120572 967909 525
512636 707308 509
240153 151752 443
515997 828407 509
533441 145000 470
939047 98761 525
730486 192082 509
58192 480017 449
864709 367125 525
238477 970447 525
693799 467063 509
407673 941162 525
598338 677165 509
708224 449516 509
323143 905646 525
976531 195680 525
605862 709926 509
376765 360021 423
991185 40335 525
927819 896543 476
751761 907196 525
908909 510381 525
988039 900568 507
992042 316652 525
230758 895517 525
3905 24489 282
397297 977082 525
404111 787878 509
250476 426164 449
567840 878180 525
416213 405552 449
345540 222908 443
302382 288460 389
886318 282119 525
494242 171571 449
884589 854033 432
919750 218409 525
499297 847924 525
267658 256839 407
883468 538432 525
493420 682177 509
992475 73720 525
584604 157933 470
684762 684531 261
77954 973659 525
826413 709867 468
348048 350925 366
512367 204300 470
340867 709658 509
298171 995761 525
732258 489966 509
386317 505393 449
788037 427556 509
834132 633278 504
292012 961696 525
469510 971642 525
627267 99132 509
582324 964764 525
654428 907892 525
496713 440197 444
57733 128732 354
118406 177220 383
172247 292375 443
128563 468664 449
215382 204979 373
685938 376118 509
206630 418356 449
886482 397279 525
903311 767990 525
268853 730339 509
161441 810392 509
872161 61353 525
198062 681587 509
57118 774683 509
885754 716101 525
864500 200147 525
865519 136443 525
85868 715408 509
43592 281198 443
581923 440378 470
153156 969483 525
155717 993479 525
261889 519727 470
989779 522155 525
159118 478000 449
481427 108729 449
244481 222058 443
817051 521198 509
869251 783596 525
879742 216926 525
188549 269351 443
210257 525351 470
662151 171875 509
883361 6214 525
320938 39458 443
321746 884193 525
374270 252416 441
24950 63545 340
125684 622426 470
380604 619655 470
932052 255468 525
766606 56596 509
915534 823441 525
923117 278958 525
327460 40533 443
966326 415835 525
801735 353848 509
216594 637935 509
895860 478855 525
566995 305269 470
768906 131293 509
483930 584361 470
389867 68450 443
974771 235789 525
1129 982798 525
529535 769375 509
970480 506495 525
229324 159996 386
69185 440726 449
882509 920416 476
704833 873149 525
344555 925431 525
240256 272944 407
341690 984005 525
146493 821683 509
456349 984225 525
966261 300881 525
